California Pitcher Plant - Cobra Lily (Darlingtonia californica) ·
…
## $meta$offset
## [1] 900
## 
## $meta$limit
## [1] 100
## 
## $meta$endOfRecords
## [1] FALSE
## 
## $meta$count
## [1] 1129
## 
## 
## $data
## # A tibble: 1,000 × 125
##    key        scientificName  decimalLatitude decimalLongitude issues datasetKey
##    <chr>      <chr>                     <dbl>            <dbl> <chr>  <chr>     
##  1 3499352919 Darlingtonia c…            41.9            -124. cdrou… 50c9509d-…
##  2 3499475143 Darlingtonia c…            41.9            -124. cdrou… 50c9509d-…
##  3 3499606799 Darlingtonia c…            41.8            -124. cdrou… 50c9509d-…
##  4 3499614932 Darlingtonia c…            41.9            -124. cdrou… 50c9509d-…
##  5 3499614940 Darlingtonia c…            42.0            -124. cdrou… 50c9509d-…
##  6 3499647846 Darlingtonia c…            41.9            -124. cdrou… 50c9509d-…
##  7 3698398122 Darlingtonia c…            41.9            -124. cdrou… 50c9509d-…
##  8 3743185922 Darlingtonia c…            41.9            -124. cdrou… 50c9509d-…
##  9 3746965657 Darlingtonia c…            41.9            -124. cdrou… 50c9509d-…
## 10 3747115575 Darlingtonia c…            42.0            -124. cdrou… 50c9509d-…
## # … with 990 more rows, and 119 more variables: publishingOrgKey <chr>,
## #   installationKey <chr>, publishingCountry <chr>, protocol <chr>,
## #   lastCrawled <chr>, lastParsed <chr>, crawlId <int>,
## #   hostingOrganizationKey <chr>, basisOfRecord <chr>, occurrenceStatus <chr>,
## #   taxonKey <int>, kingdomKey <int>, phylumKey <int>, classKey <int>,
## #   orderKey <int>, familyKey <int>, genusKey <int>, speciesKey <int>,
## #   acceptedTaxonKey <int>, acceptedScientificName <chr>, kingdom <chr>, …
…
