Mount Shasta Wilderness- Anemone occidentalis population ·
…
## $meta$offset
## [1] 0
## 
## $meta$limit
## [1] 300
## 
## $meta$endOfRecords
## [1] TRUE
## 
## $meta$count
## [1] 41
## 
## 
## $data
## # A tibble: 41 × 112
##    key        scientificName  decimalLatitude decimalLongitude issues datasetKey
##    <chr>      <chr>                     <dbl>            <dbl> <chr>  <chr>     
##  1 899744820  Anemone occide…            41.6            -123. colma… 7a2660bc-…
##  2 2417975310 Anemone occide…            40.5            -122. cdrep… ae33dc82-…
##  3 2982055079 Anemone occide…            41.2            -123. cdrou… 6958627a-…
##  4 3320762840 Anemone occide…            41.2            -123. gass8… 677aece2-…
##  5 3320797832 Anemone occide…            41.5            -122. gass8… 677aece2-…
##  6 3320792153 Anemone occide…            41.5            -123. gass8… 677aece2-…
##  7 2982018718 Anemone occide…            41.6            -123. gass8… 6958627a-…
##  8 2982054706 Anemone occide…            41.8            -124. colma… 6958627a-…
##  9 2430340130 Anemone occide…            41.5            -123. gass8… 9781ce05-…
## 10 2982048257 Anemone occide…            41.5            -123. colma… 6958627a-…
## # … with 31 more rows, and 106 more variables: publishingOrgKey <chr>,
## #   networkKeys <list>, installationKey <chr>, publishingCountry <chr>,
## #   protocol <chr>, lastCrawled <chr>, lastParsed <chr>, crawlId <int>,
## #   hostingOrganizationKey <chr>, basisOfRecord <chr>, occurrenceStatus <chr>,
## #   taxonKey <int>, kingdomKey <int>, phylumKey <int>, classKey <int>,
## #   orderKey <int>, familyKey <int>, genusKey <int>, speciesKey <int>,
## #   acceptedTaxonKey <int>, acceptedScientificName <chr>, kingdom <chr>, …
…
