Sugar Pine (Pinus lambertiana) ·
…
## $meta$offset
## [1] 0
## 
## $meta$limit
## [1] 300
## 
## $meta$endOfRecords
## [1] TRUE
## 
## $meta$count
## [1] 248
## 
## 
## $data
## # A tibble: 248 × 120
##    key        scientificName  decimalLatitude decimalLongitude issues datasetKey
##    <chr>      <chr>                     <dbl>            <dbl> <chr>  <chr>     
##  1 3499371090 Pinus lamberti…            41.9            -124. ""     50c9509d-…
##  2 3705791914 Pinus lamberti…            41.5            -124. "cdro… 50c9509d-…
##  3 3705386161 Pinus lamberti…            41.2            -122. "cdro… 50c9509d-…
##  4 3747286857 Pinus lamberti…            40.9            -124. ""     50c9509d-…
##  5 3759831942 Pinus lamberti…            41.8            -124. "cdro… 50c9509d-…
##  6 3760339371 Pinus lamberti…            41.9            -124. "cdro… 50c9509d-…
##  7 3031928144 Pinus lamberti…            41.1            -122. "cdro… 50c9509d-…
##  8 3118331456 Pinus lamberti…            41.2            -122. "cdro… 50c9509d-…
##  9 3124670049 Pinus lamberti…            41.2            -122. "cdro… 50c9509d-…
## 10 3415420568 Pinus lamberti…            40.9            -124. "cdro… 50c9509d-…
## # … with 238 more rows, and 114 more variables: publishingOrgKey <chr>,
## #   installationKey <chr>, publishingCountry <chr>, protocol <chr>,
## #   lastCrawled <chr>, lastParsed <chr>, crawlId <int>,
## #   hostingOrganizationKey <chr>, basisOfRecord <chr>, occurrenceStatus <chr>,
## #   taxonKey <int>, kingdomKey <int>, phylumKey <int>, classKey <int>,
## #   orderKey <int>, familyKey <int>, genusKey <int>, speciesKey <int>,
## #   acceptedTaxonKey <int>, acceptedScientificName <chr>, kingdom <chr>, …
…
