Miracle Mile Conifer Species ·
…
## $meta$offset
## [1] 0
## 
## $meta$limit
## [1] 300
## 
## $meta$endOfRecords
## [1] TRUE
## 
## $meta$count
## [1] 91
## 
## 
## $data
## # A tibble: 91 x 117
##    key    scientificName  decimalLatitude decimalLongitude issues   datasetKey  
##    <chr>  <chr>                     <dbl>            <dbl> <chr>    <chr>       
##  1 26201… Pinus balfouri…            40.7            -123. cdround… 50c9509d-22…
##  2 28143… Pinus balfouri…            41.2            -123. cdround… 50c9509d-22…
##  3 28509… Pinus balfouri…            41.3            -122. cdround… 50c9509d-22…
##  4 28622… Pinus balfouri…            41.3            -123. cdround… 50c9509d-22…
##  5 30676… Pinus balfouri…            40.9            -123. cdround… 50c9509d-22…
##  6 28506… Pinus balfouri…            41.3            -122. cdround… 50c9509d-22…
##  7 28510… Pinus balfouri…            41.3            -122. cdround… 50c9509d-22…
##  8 28512… Pinus balfouri…            41.2            -123. cdround… 50c9509d-22…
##  9 28512… Pinus balfouri…            41.2            -123. cdround… 50c9509d-22…
## 10 28512… Pinus balfouri…            41.2            -123. cdround… 50c9509d-22…
## # … with 81 more rows, and 111 more variables: publishingOrgKey <chr>,
## #   installationKey <chr>, publishingCountry <chr>, protocol <chr>,
## #   lastCrawled <chr>, lastParsed <chr>, crawlId <int>,
## #   hostingOrganizationKey <chr>, basisOfRecord <chr>, occurrenceStatus <chr>,
## #   taxonKey <int>, kingdomKey <int>, phylumKey <int>, classKey <int>,
## #   orderKey <int>, familyKey <int>, genusKey <int>, speciesKey <int>,
## #   acceptedTaxonKey <int>, acceptedScientificName <chr>, kingdom <chr>,
## #   phylum <chr>, order <chr>, family <chr>, genus <chr>, species <chr>,
## #   genericName <chr>, specificEpithet <chr>, taxonRank <chr>,
…
