Scraping Weather Data ·
…
# Right click on the page and get the xpath to a specific table
xpath <- "/html/body/div[2]/main/div/article/div/table[2]"
weather <- html_nodes(html, xpath = xpath)
html_table(weather)

## [[1]]
## # A tibble: 75 × 21
##    `Observed and Fore… `Observed and Fore… `Observed and For… `Observed and For…
##    <chr>               <chr>               <chr>              <chr>             
##  1 ""                  Ob Temp (°F)        Ob Temp (°F)       Ob Temp (°F)      
##  2 "Date"              Min                 Max                Avg               
##  3 "2022 01/14"        38                  49.5               43.5              
##  4 "2022 01/13"        26.5                38                 31.5              
##  5 "2022 01/12"        30                  52                 41.5              
##  6 "2022 01/11"        35.5                49.5               41.5              
##  7 "2022 01/10"        27                  40                 33.5              
##  8 "2022 01/09"        26                  37                 31.5              
##  9 "2022 01/08"        21.5                34.5               29                
## 10 "2022 01/07"        21.5                27.5               25                
## # … with 65 more rows, and 17 more variables:
## #   Observed and Forecast Weather by Day <chr>,
## #   Observed and Forecast Weather by Day <chr>,
## #   Observed and Forecast Weather by Day <chr>,
## #   Observed and Forecast Weather by Day <chr>,
## #   Observed and Forecast Weather by Day <chr>,
## #   Observed and Forecast Weather by Day <chr>, …
…
